module xantios.nl/PlexWatcher

go 1.19

require (
	github.com/fsnotify/fsnotify v1.6.0
	github.com/rjeczalik/notify v0.9.3
	gopkg.in/yaml.v3 v3.0.1
)

require golang.org/x/sys v0.0.0-20220908164124-27713097b956 // indirect
